<?xml version="1.0" standalone="no"?>
<!DOCTYPE svg PUBLIC "-//W3C//DTD SVG 1.1//EN" "http://www.w3.org/Graphics/SVG/1.1/DTD/svg11.dtd" >
<!--
2016-11-8: Created.
-->
<svg xmlns="http://www.w3.org/2000/svg">
    <metadata>
        Created by FontForge 20120731 at Tue Nov  8 18:15:23 2016
        By Apache
        Created by Apache with FontForge 2.0 (http://fontforge.sf.net)
    </metadata>
    <defs>
        <font id="Flaticon" horiz-adv-x="512" >
            <font-face 
                font-family="Flaticon"
                font-weight="500"
                font-stretch="normal"
                units-per-em="512"
                panose-1="2 0 6 3 0 0 0 0 0 0"
                ascent="448"
                descent="-64"
                bbox="0 -64 512 448"
                underline-thickness="25.6"
                underline-position="-51.2"
                unicode-range="U+0020-F104"
            />
            <missing-glyph />
            <glyph glyph-name="space" unicode=" " horiz-adv-x="200" 
            />
            <glyph glyph-name="uniF102" unicode="&#xf102;" 
                   d="M396.676 102.289c-4.27441 0 -7.74316 3.46875 -7.74316 7.74316s3.46875 7.74316 7.74316 7.74316c55.0527 0 99.8223 44.7852 99.8223 99.8232c0 55.0215 -44.7852 99.7764 -99.8223 99.7764c-4.61523 0 -9.49316 -0.402344 -15.3467 -1.28516
c-3.31445 -0.510742 -6.59766 1.22363 -8.08398 4.22754c-23.9111 48.4873 -72.1963 78.5918 -126.01 78.5918c-64.7939 0 -120.854 -43.9648 -136.34 -106.916c-0.867188 -3.53027 -4.30469 -5.77637 -7.71191 -5.88477l-1.9668 0.108398h-0.139648
c-47.8516 0 -85.5908 -37.7705 -85.5908 -84.1973c0 -46.458 37.8008 -84.2441 84.2744 -84.2441c4.27441 0 7.74316 -3.46875 7.74316 -7.74316s-3.46875 -7.74316 -7.74316 -7.74316c-55.0059 0 -99.7607 44.7393 -99.7607 99.7305
c0 54.2324 43.5156 98.5068 97.4688 99.7305c19.2188 66.6357 79.9238 112.646 149.751 112.646c57.8867 0 110.013 -31.375 137.346 -82.2471c4.33594 0.480469 8.26953 0.712891 12.0947 0.712891c63.5859 0 115.309 -51.708 115.309 -115.263
c0.03125 -63.5859 -51.708 -115.31 -115.293 -115.31zM396.676 102.289c-4.27441 0 -7.74316 3.46875 -7.74316 7.74316s3.46875 7.74316 7.74316 7.74316c55.0527 0 99.8223 44.7852 99.8223 99.8232c0 55.0215 -44.7852 99.7764 -99.8223 99.7764
c-28.8359 0 -56.2617 -12.4658 -75.2314 -34.1934c-2.80371 -3.23633 -7.69727 -3.56152 -10.918 -0.743164c-3.2207 2.80273 -3.5459 7.69629 -0.743164 10.918c21.8975 25.1025 53.5664 39.4893 86.8926 39.4893c63.585 0 115.309 -51.708 115.309 -115.263
c0.015625 -63.5703 -51.7236 -115.294 -115.309 -115.294zM128.147 -30.3955c-0.790039 0 -1.58008 0.124023 -2.37012 0.37207c-4.07227 1.30078 -6.30273 5.66797 -5.00195 9.74023l14.2168 44.2129c1.31641 4.07324 5.69824 6.30273 9.74023 5.00195
c4.07324 -1.30078 6.31836 -5.66797 5.00195 -9.74023l-14.2158 -44.2285c-1.05273 -3.26758 -4.10352 -5.3584 -7.37109 -5.3584zM156.595 58.0615c-0.789062 0 -1.5791 0.123047 -2.36914 0.371094c-4.07324 1.30078 -6.31836 5.66797 -5.00195 9.74121l14.2158 44.2275
c1.31641 4.07324 5.66797 6.27246 9.74121 5.00195c4.07227 -1.30078 6.30273 -5.66797 5.00195 -9.74023l-14.2158 -44.2285c-1.05371 -3.2832 -4.08887 -5.37305 -7.37207 -5.37305zM283.008 -30.3955c-0.790039 0 -1.58008 0.124023 -2.36914 0.37207
c-4.07324 1.30078 -6.30273 5.66797 -5.00195 9.74023l14.2158 44.2129c1.31641 4.07324 5.69922 6.30273 9.74023 5.00195c4.07324 -1.30078 6.31836 -5.66797 5.00293 -9.74023l-14.2168 -44.2285c-1.05273 -3.26758 -4.10352 -5.3584 -7.37109 -5.3584zM311.455 58.0615
c-0.789062 0 -1.5791 0.123047 -2.36914 0.371094c-4.07227 1.30078 -6.31836 5.66797 -5.00195 9.74121l14.2168 44.2275c1.31641 4.07324 5.66797 6.27246 9.74023 5.00195c4.07324 -1.30078 6.30273 -5.66797 5.00195 -9.74023l-14.2158 -44.2285
c-1.05371 -3.2832 -4.08887 -5.37305 -7.37207 -5.37305zM205.577 -30.3955c-0.789062 0 -1.5791 0.124023 -2.36914 0.37207c-4.07324 1.30078 -6.30273 5.66797 -5.00195 9.74023l14.2158 44.2129c1.31641 4.07324 5.69922 6.30273 9.74121 5.00195
c4.07227 -1.30078 6.31836 -5.66797 5.00195 -9.74023l-14.2158 -44.2285c-1.05371 -3.26758 -4.10449 -5.3584 -7.37207 -5.3584zM234.025 58.0615c-0.790039 0 -1.58008 0.123047 -2.36914 0.371094c-4.07324 1.30078 -6.31836 5.66797 -5.00195 9.74121l14.2158 44.2275
c1.31641 4.07324 5.66797 6.27246 9.74121 5.00195c4.07227 -1.30078 6.30273 -5.66797 5.00195 -9.74023l-14.2168 -44.2285c-1.05273 -3.2832 -4.08789 -5.37305 -7.37109 -5.37305z" />
            <glyph glyph-name="uniF103" unicode="&#xf103;" 
                   d="M427.322 273.449c47.9951 -7.05273 84.6777 -48.8545 84.6777 -97.9648c0 -54.6445 -44.4531 -99.0977 -99.0967 -99.0977h-322.064c-50.085 0 -90.8389 40.7539 -90.8389 90.8389c0 24.6338 9.87695 46.9883 25.8564 63.3643
c-16.1201 12.3789 -25.8564 31.4883 -25.8564 52.249c0 34.4775 25.8887 62.5303 59.7227 65.709c11.7842 17.1279 31.9258 27.0703 53.2891 24.832c13.7822 39.4238 51.1836 66.3623 93.4395 66.3623c35.6504 0 68.0059 -18.9277 85.7021 -49.6895
c67.2295 -1.49414 123.987 -50.6211 135.169 -116.604zM16.5166 282.839c0 -16.7637 8.46387 -32.0996 22.2881 -41.2324c13.7334 9.63672 30.2246 15.5996 48.0537 16.376c13.7246 20.5371 36.9795 33.1143 61.7871 33.1143
c2.04785 0 4.13672 -0.0908203 6.25098 -0.280273c16.3428 53.7432 62.9102 92.0684 118.132 98.3613c-15.3936 21.2314 -39.8623 34.0479 -66.5771 34.0479c-37.3174 0 -70.0859 -25.2119 -79.7148 -61.3076l-2.06445 -7.75391l-7.80371 1.84961
c-18.7207 4.42578 -36.3516 -4.10449 -45.2793 -19.5723l-2.30371 -3.99609l-4.61621 -0.132812c-26.9961 -0.759766 -48.1523 -22.4863 -48.1523 -49.4736zM412.903 92.9033c45.5352 0 82.5801 37.0459 82.5801 82.5811c0 39.4648 -28.457 73.1992 -66.3447 80.8213
c0.0986328 -2.16406 0.280273 -4.31055 0.280273 -6.49902c0 -77.4111 -62.9756 -140.388 -140.387 -140.388v16.5166c68.3027 0 123.871 55.5684 123.871 123.871c0 3.50977 -0.165039 6.97754 -0.446289 10.4131l-0.578125 4.74023
c-7.57227 61.9766 -60.3828 108.718 -122.847 108.718c-56.9805 0 -106.364 -38.6562 -120.08 -94.0098l-1.88281 -7.57324l-7.66406 1.44531c-3.68262 0.693359 -7.2998 1.04102 -10.7598 1.04102c-20.5215 0 -39.7051 -11.0908 -50.0361 -28.9453l-2.37793 -4.12012
l-5.71484 0.0410156c-40.6631 -0.0078125 -74 -33.3545 -74 -74.3311c0 -40.9844 33.3369 -74.3223 74.3223 -74.3223h322.064zM186.244 34.2295l7.38281 -14.7822l-18.2588 -9.125l18.2588 -9.125l-7.38281 -14.7822l-21.083 10.5459v-19.6709h-16.5156v19.6709
l-21.083 -10.5459l-7.38281 14.7822l18.2588 9.125l-18.2588 9.125l7.38281 14.7822l21.083 -10.5449v19.6699h16.5156v-19.6699zM384.438 34.2295l7.38281 -14.7822l-18.2588 -9.125l18.2588 -9.125l-7.38281 -14.7822l-21.083 10.5459v-19.6709h-16.5156v19.6709
l-21.083 -10.5459l-7.38281 14.7822l18.2588 9.125l-18.2588 9.125l7.38281 14.7822l21.083 -10.5449v19.6699h16.5156v-19.6699zM285.341 1.19727l7.38281 -14.7822l-18.2588 -9.125l18.2588 -9.125l-7.38281 -14.7822l-21.083 10.5459v-19.6709h-16.5156v19.6709
l-21.083 -10.5459l-7.38281 14.7822l18.2588 9.125l-18.2588 9.125l7.38281 14.7822l21.083 -10.5449v19.6699h16.5156v-19.6699z" />
            <glyph glyph-name="uniF101" unicode="&#xf101;" 
                   d="M327.364 18.4834h-245.034c-45.3955 0 -82.3301 36.9219 -82.3301 82.3174c0 44.7559 35.9121 81.2949 80.4385 82.3047c15.8604 54.9932 65.959 92.9629 123.585 92.9629c47.7715 0 90.79 -25.8926 113.347 -67.876c3.5791 0.396484 6.8252 0.587891 9.98145 0.587891
c52.4756 0 95.1611 -42.6729 95.1611 -95.123c0.0263672 -52.4883 -42.6729 -95.1738 -95.1484 -95.1738zM82.3301 170.338c-38.3535 0 -69.5498 -31.1963 -69.5498 -69.5371s31.1963 -69.5244 69.5498 -69.5244h245.034c45.4336 0 82.3818 36.96 82.3818 82.3809
c0 45.4082 -36.9609 82.3428 -82.3818 82.3428c-3.80859 0 -7.83398 -0.332031 -12.665 -1.06055c-2.73438 -0.40918 -5.44434 1.00977 -6.6709 3.48926c-19.7324 39.9893 -59.5938 64.8467 -104.005 64.8467c-53.4727 0 -99.7373 -36.2832 -112.518 -88.2344
c-0.71582 -2.91406 -3.36133 -4.83105 -6.36426 -4.85645zM327.364 18.4834c-3.52734 0 -6.38965 2.8623 -6.38965 6.38965s2.8623 6.39062 6.38965 6.39062c45.4336 0 82.3818 36.96 82.3818 82.3809c0 45.4082 -36.9609 82.3428 -82.3818 82.3428
c-23.7959 0 -46.4297 -10.2881 -62.0859 -28.2188c-2.31348 -2.6582 -6.35156 -2.93945 -9.00977 -0.613281c-2.6582 2.31348 -2.92676 6.35156 -0.613281 9.00977c18.0713 20.7168 44.2061 32.5898 71.709 32.5898c52.4756 0 95.1611 -42.6729 95.1611 -95.123
c0.0136719 -52.4629 -42.6855 -95.1484 -95.1611 -95.1484zM416.826 107.944c-3.52734 0 -6.39062 2.86328 -6.39062 6.39062s2.86328 6.38965 6.39062 6.38965c45.4336 0 82.3809 36.9609 82.3809 82.3818c0 45.4072 -36.96 82.3428 -82.3809 82.3428
c-3.80859 0 -7.83398 -0.333008 -12.665 -1.06152c-2.73535 -0.408203 -5.44434 1.00977 -6.67188 3.48926c-19.7324 39.9893 -59.5938 64.8467 -104.005 64.8467c-53.4727 0 -99.7363 -36.2832 -112.517 -88.2344c-0.71582 -2.91406 -3.33594 -4.80566 -6.36523 -4.85645
l-1.62305 0.0898438c-3.52734 0 -6.99023 2.90039 -6.99023 6.41504c0 2.81152 1.43164 5.22754 3.80859 6.08398c15.7451 55.1592 65.9326 93.2822 123.674 93.2822c47.7725 0 90.79 -25.8926 113.348 -67.876c3.57812 0.396484 6.82422 0.587891 9.98145 0.587891
c52.4746 0 95.1611 -42.6729 95.1611 -95.123c0.0380859 -52.4619 -42.6602 -95.1484 -95.1357 -95.1484zM416.826 107.944c-3.52734 0 -6.39062 2.86328 -6.39062 6.39062s2.86328 6.38965 6.39062 6.38965c45.4336 0 82.3809 36.9609 82.3809 82.3818
c0 45.4072 -36.96 82.3428 -82.3809 82.3428c-23.7969 0 -46.4307 -10.2881 -62.0859 -28.2188c-2.31348 -2.67188 -6.35254 -2.93945 -9.01074 -0.614258c-2.6582 2.31348 -2.92676 6.35254 -0.613281 9.01074c18.0713 20.7168 44.207 32.5889 71.71 32.5889
c52.4756 0 95.1611 -42.6729 95.1611 -95.123c0.0126953 -52.4619 -42.6855 -95.1484 -95.1611 -95.1484z" />
            <glyph glyph-name="uniF100" unicode="&#xf100;" 
                   d="M281.436 12.2725h-210.656c-39.0264 0 -70.7793 31.7422 -70.7793 70.7686c0 38.4766 30.874 69.8887 69.1533 70.7568c13.624 47.2773 56.6934 79.9199 106.245 79.9199c41.0703 0 78.0527 -22.2598 97.4453 -58.3525
c3.06445 0.34082 5.86621 0.505859 8.58008 0.505859c45.1025 0 81.8105 -36.6865 81.8105 -81.7773c0.0107422 -45.1133 -36.6855 -81.8213 -81.7988 -81.8213zM70.7793 142.821c-32.9619 0 -59.792 -26.8193 -59.792 -59.7803
c0 -32.9619 26.8193 -59.7705 59.792 -59.7705h210.656c39.0479 0 70.8223 31.7754 70.8223 70.8232c0 39.0371 -31.7744 70.79 -70.8223 70.79c-3.28516 0 -6.74609 -0.286133 -10.8887 -0.912109c-2.3623 -0.34082 -4.68066 0.857422 -5.73535 3
c-16.9639 34.3779 -51.2324 55.748 -89.4131 55.748c-45.9697 0 -85.7432 -31.1924 -96.7305 -75.8545c-0.615234 -2.50586 -2.8457 -4.05469 -5.47168 -4.17578zM281.436 12.2725c-3.0332 0 -5.49414 2.46094 -5.49414 5.49414c0 3.03223 2.46094 5.49316 5.49414 5.49316
c39.0479 0 70.8223 31.7744 70.8223 70.8232c0 39.0371 -31.7744 70.79 -70.8223 70.79c-20.4697 0 -39.917 -8.84473 -53.3652 -24.2598c-1.99902 -2.28516 -5.45996 -2.51562 -7.75684 -0.527344c-2.28516 2 -2.51562 5.47168 -0.527344 7.75684
c15.5361 17.8105 38.0049 28.0176 61.6494 28.0176c45.1016 0 81.8096 -36.6865 81.8096 -81.7773c0 -45.1025 -36.6963 -81.8105 -81.8096 -81.8105zM396.02 120.484c-1.40625 0 -2.8125 0.539062 -3.88867 1.61523c-2.14258 2.15332 -2.13184 5.63672 0.0107422 7.7793
c16.3818 16.3047 25.4023 38.0156 25.4023 61.1318c0 47.5742 -38.6973 86.2822 -86.2822 86.2822c-25.0283 0 -48.8047 -10.8662 -65.2305 -29.8076c-2 -2.28613 -5.46094 -2.53809 -7.75684 -0.549805c-2.28516 1.98828 -2.53809 5.46094 -0.549805 7.75684
c18.5137 21.3477 45.3223 33.5986 73.5371 33.5986c53.6279 0 97.2695 -43.6299 97.2695 -97.2686c0 -26.0615 -10.1631 -50.541 -28.6221 -68.9229c-1.08789 -1.08789 -2.49414 -1.61523 -3.88965 -1.61523zM331.262 319.506c-3.03223 0 -5.49316 2.46094 -5.49316 5.49316
v41.2344c0 3.0332 2.46094 5.49414 5.49316 5.49414s5.49414 -2.46094 5.49414 -5.49414v-41.2344c0 -3.03223 -2.46191 -5.49316 -5.49414 -5.49316zM506.507 185.518h-41.2354c-3.03223 0 -5.49316 2.46094 -5.49316 5.49316c0 3.0332 2.46094 5.49414 5.49316 5.49414
h41.2354c3.03223 0 5.49316 -2.46094 5.49316 -5.49414c0 -3.03223 -2.46094 -5.49316 -5.49316 -5.49316zM426.015 280.271c-1.40625 0 -2.8125 0.538086 -3.88965 1.60449c-2.14258 2.14258 -2.14258 5.625 0 7.76758l29.1602 29.1484
c2.14258 2.14258 5.625 2.14258 7.76758 0s2.14258 -5.625 0 -7.76758l-29.1592 -29.1484c-1.06641 -1.06641 -2.47266 -1.60449 -3.87891 -1.60449zM455.164 61.6045c-1.40723 0 -2.81348 0.539062 -3.88965 1.60449l-29.1494 29.1377
c-2.14258 2.14258 -2.14258 5.62598 0 7.76758c2.14258 2.14258 5.62598 2.14258 7.76855 0l29.1484 -29.1377c2.14258 -2.14258 2.14258 -5.625 0 -7.76758c-1.06543 -1.07715 -2.47168 -1.60449 -3.87793 -1.60449zM236.487 280.271
c-1.40723 0 -2.81348 0.538086 -3.88965 1.60449l-29.1377 29.1484c-2.14258 2.14258 -2.14258 5.625 0 7.76758c2.1416 2.14258 5.625 2.14258 7.76758 0l29.1377 -29.1484c2.14258 -2.14258 2.14258 -5.625 0 -7.76758
c-1.06543 -1.06641 -2.47168 -1.60449 -3.87793 -1.60449z" />
            <glyph glyph-name="uniF104" unicode="&#xf104;" 
                   d="M163.044 394.829l15.2598 6.32129l15.8018 -38.1494l-15.2598 -6.32031zM46.8232 269.708l6.32129 15.2588l38.1484 -15.8018l-6.32031 -15.2598zM53.1982 98.9932l-6.32129 15.2598l38.1494 15.8018l6.32031 -15.2588zM194.076 20.9434l-15.8057 -38.1436
l-15.2578 6.32227l15.8057 38.1436zM348.989 -10.7783l-15.2588 -6.32031l-15.8027 38.1484l15.2598 6.32129zM465.158 114.302l-6.32031 -15.2598l-38.1494 15.8027l6.32129 15.2588zM458.798 284.938l6.32129 -15.2598l-38.1494 -15.8018l-6.32129 15.2588z
M317.881 363.043l15.8057 38.1426l15.2568 -6.32227l-15.8047 -38.1426zM256 357.161c91.0703 0 165.161 -74.0908 165.161 -165.161s-74.0908 -165.161 -165.161 -165.161s-165.161 74.0908 -165.161 165.161s74.0908 165.161 165.161 165.161zM256 43.3545
c81.9609 0 148.646 66.6846 148.646 148.646s-66.6846 148.646 -148.646 148.646s-148.646 -66.6846 -148.646 -148.646s66.6846 -148.646 148.646 -148.646zM247.742 373.678v74.3223h16.5156v-74.3223h-16.5156zM69.1455 367.179l11.6787 11.6787l52.5527 -52.5527
l-11.6787 -11.6787zM0 183.742v16.5156h74.3223v-16.5156h-74.3223zM133.369 57.6836l-52.5527 -52.5527l-11.6787 11.6787l52.5527 52.5527zM247.742 -64v74.3223h16.5156v-74.3223h-16.5156zM442.831 16.8057l-11.6787 -11.6787l-52.5527 52.5527l11.6787 11.6787z
M437.678 183.742v16.5156h74.3223v-16.5156h-74.3223zM378.63 326.312l52.5527 52.5527l11.6787 -11.6787l-52.5527 -52.5527z" />
        </font>
    </defs>
</svg>
