<?xml version="1.0" standalone="no"?>
<!DOCTYPE svg PUBLIC "-//W3C//DTD SVG 1.1//EN" "http://www.w3.org/Graphics/SVG/1.1/DTD/svg11.dtd" >
<!--
2017-1-7: Created.
-->
<svg xmlns="http://www.w3.org/2000/svg">
    <metadata>
        Created by FontForge 20120731 at Sat Jan  7 06:37:23 2017
        By Apache
        Created by Apache with FontForge 2.0 (http://fontforge.sf.net)
    </metadata>
    <defs>
        <font id="Flaticon" horiz-adv-x="512" >
            <font-face 
                font-family="Flaticon"
                font-weight="500"
                font-stretch="normal"
                units-per-em="512"
                panose-1="2 0 6 3 0 0 0 0 0 0"
                ascent="448"
                descent="-64"
                bbox="-0.00257015 -64.001 512.002 448.001"
                underline-thickness="25.6"
                underline-position="-51.2"
                unicode-range="U+0020-F107"
            />
            <missing-glyph />
            <glyph glyph-name="space" unicode=" " horiz-adv-x="200" 
            />
            <glyph glyph-name="uniF107" unicode="&#xf107;" 
                   d="M483.113 62.2773c-1.39941 -7.12305 -7.64453 -12.2598 -14.9043 -12.2617h-2.61523l32.3174 -83.8008c2.01172 -5.2168 -0.585938 -11.0791 -5.80469 -13.0918c-5.20703 -2.00879 -11.0762 0.578125 -13.0928 5.80469l-35.1279 91.0869h-57.6865l-19.8418 -51.4463
l6.36523 -16.0859c4.47461 -11.3086 -1.06445 -24.1045 -12.374 -28.5791c-11.3018 -4.47363 -24.1006 1.05664 -28.5791 12.374l-49.9883 126.325c-2.68848 6.79199 -1.83301 14.4736 2.28223 20.5088c4.16406 6.10938 11.041 9.66797 18.2578 9.61523l67.7715 -0.198242
c9.40234 1.48926 16.2295 7.48145 19.2383 15.2715c6.92676 17.9395 12.9277 36.9912 17.1104 56.6738l-28.542 -51.1582c-3.24023 -5.80957 -9.37207 -9.41113 -16.0244 -9.41113h-73.8877c-10.1348 0 -18.3506 8.21582 -18.3506 18.3525
c0 10.1357 8.21484 18.3516 18.3506 18.3516h63.1123l27.7607 49.7578l-26.9805 -30.0098l-0.371094 23.5283c-0.268555 17.0625 13.4346 31.0918 30.5068 31.2139l28.2686 0.202148c17.0801 0.12207 30.998 -13.7256 30.9502 -30.8145l-0.28418 -104.227
c-0.0224609 -8.17676 -3.30176 -16.0049 -9.11133 -21.7568c-4.09766 -4.05664 -9.2207 -6.83691 -14.751 -8.10547h38.625l26.1904 133.233c1.61816 8.22949 9.59473 13.5908 17.835 11.9746c8.23047 -1.61914 13.5918 -9.60254 11.9736 -17.835zM355.363 26.3535
l9.12695 23.666h-2.61426c-8.38965 0 -15.1904 6.80078 -15.1904 15.1895c0 5.74512 3.19238 10.7441 7.89746 13.3252l-19.8906 0.0585938zM331.759 299.66c0 27.0013 13.5006 40.502 40.502 40.502s40.502 -13.5006 40.502 -40.502
c0 -27.002 -13.5006 -40.5029 -40.502 -40.5029s-40.502 13.501 -40.502 40.5029zM150.127 133.908c-6.65234 0 -12.7852 3.60059 -16.0244 9.41113l-28.5439 51.1592l17.1104 -56.6738c3.02148 -7.76172 9.97852 -13.7959 18.7959 -15.1973
c0.724609 -0.115234 -3.82129 -0.0859375 68.2158 0.124023h0.0644531c7.28125 0 14.1104 -3.62695 18.1934 -9.61523c4.11523 -6.03613 4.96973 -13.7178 2.28223 -20.5088l-49.9883 -126.325c-4.47754 -11.3135 -17.2764 -16.8486 -28.5791 -12.374
c-11.3096 4.47461 -16.8486 17.2695 -12.374 28.5791l6.36523 16.0859l-19.8428 51.4453h-57.6865l-35.1279 -91.0869c-2.01367 -5.22266 -7.88086 -7.81348 -13.0908 -5.80371c-5.21973 2.01172 -7.81836 7.87305 -5.80664 13.0918l32.3184 83.7979h-2.61426
c-7.25977 0 -13.5059 5.1377 -14.9053 12.2607l-28.5996 145.493c-1.62012 8.23242 3.74219 16.2168 11.9736 17.835c8.23145 1.61719 16.2188 -3.74219 17.835 -11.9746l26.1904 -133.233h38.625c-5.53027 1.26855 -10.6523 4.04883 -14.751 8.10547
c-5.80957 5.75195 -9.08887 13.5801 -9.1123 21.7568l-0.28418 104.227c-0.0478516 17.0791 13.8613 30.9365 30.9502 30.8145l28.2686 -0.202148c17.0645 -0.12207 30.7764 -14.1426 30.5068 -31.2139l-0.371094 -23.5283l-26.9795 30.0088l27.7627 -49.7568h63.1113
c10.1348 0 18.3506 -8.21289 18.3506 -18.3486c0 -10.1367 -8.21484 -18.3525 -18.3506 -18.3525h-73.8877zM150.127 50.0176h-2.61621l9.12793 -23.666l20.6719 52.2402l-19.8906 -0.0585938c4.70508 -2.58008 7.89746 -7.5791 7.89746 -13.3252
c0 -8.38965 -6.80078 -15.1904 -15.1904 -15.1904v0zM99.2432 299.66c0 27.0013 13.5006 40.502 40.502 40.502c27.0013 0 40.502 -13.5006 40.502 -40.502c0 -27.002 -13.5007 -40.5029 -40.502 -40.5029c-27.0013 0 -40.502 13.501 -40.502 40.5029zM246.225 431.646
c40.0615 0 72.5371 -23.3848 72.5361 -52.2324c0 -28.8477 -32.4756 -52.2334 -72.5381 -52.2334c-7.875 0 -15.4502 0.916016 -22.5498 2.58691l-28.5059 -16.2793c-1.98828 -1.13672 -4.48828 -0.834961 -6.15137 0.739258s-2.10059 4.05371 -1.07422 6.10254
l10.0547 20.0801c-14.9102 9.56641 -24.3086 23.4922 -24.3086 39.0039c0 28.8477 32.4756 52.2324 72.5371 52.2324z" />
            <glyph glyph-name="uniF104" unicode="&#xf104;" 
                   d="M376.648 296.816c6.41797 -9.90332 7.50977 -23.1895 3.24609 -39.4854c-7.97266 -30.4785 -26.5742 -37.1895 -36.4961 -38.5371c-6.11328 -12.2217 -19.5498 -37.2012 -32.9941 -49.752c-5.37109 -5.0127 -12.3545 -9.24219 -20.7539 -12.5781
c-10.7207 -4.25391 -22.0439 -6.41113 -33.6504 -6.41113s-22.9297 2.15723 -33.6504 6.41113c-8.39941 3.33594 -15.3828 7.56543 -20.7539 12.5781c-13.4453 12.5508 -26.8809 37.5303 -32.9941 49.752c-9.9248 1.34766 -28.5254 8.05566 -36.4961 38.5352
c-4.26367 16.2998 -3.17188 29.584 3.24609 39.4893c2.83691 4.37793 6.27539 7.3623 9.47754 9.38184c0.00878906 3.25293 0.144531 7.32715 0.522461 11.96c-5.76465 8.01074 -13.6025 25.2949 -3.89551 53.2725c10.2588 29.5771 33.4561 34.1426 44.6523 34.5381
c3.78516 7.03418 10.9365 17.0264 23.9199 26.2139c14.418 10.1982 33.2412 15.8154 53.0059 15.8154c24.3184 0 48.7891 -8.55859 70.7656 -24.7539c35.6299 -26.2559 32.5771 -84.4893 31.7041 -95.0654c1.29297 -8.86328 1.65137 -16.5488 1.66699 -21.9834
c3.20215 -2.01855 6.64062 -5.00293 9.47754 -9.38086zM357.232 263.255c2.3916 9.13965 2.37109 16.4316 -0.0585938 20.5234c-1.41211 2.37793 -3.41699 3.18164 -4.07324 3.3877c-6.30566 0.681641 -10.0977 6.18848 -9.54492 12.5479
c0.0136719 0.164062 0.526367 7.06445 -0.351562 17.1768c-21.2451 1.81055 -71.5732 7.11133 -96.7559 18.2559c-14.7031 6.50781 -25.8154 14.0381 -33.665 20.4473c-2.87891 -6.71094 -6.92188 -14.0264 -12.4473 -19.9971
c-10.8564 -11.7256 -23.7354 -18.5586 -31.7949 -22.0234c-0.520508 -8.28418 -0.110352 -13.7285 -0.0986328 -13.8828c0.524414 -6.34082 -3.26074 -11.8428 -9.54492 -12.5244c-0.65625 -0.206055 -2.66113 -1.00781 -4.07422 -3.3877
c-2.42676 -4.09375 -2.44727 -11.3857 -0.0556641 -20.5283c4.86035 -18.5752 13.543 -21.3506 18.2871 -21.3506c0.334961 0 0.587891 0.0166016 0.737305 0.0302734c0.916016 0.232422 1.82031 0.341797 2.70117 0.341797c4.33984 0 8.13281 -2.67676 10.1045 -6.91699
c4.6377 -9.96875 19.25 -38.2412 30.9805 -49.1914c3.22559 -3.00977 7.73926 -5.68066 13.4121 -7.93164c15.917 -6.31738 34.1006 -6.31738 50.0195 0c5.67285 2.25098 10.1865 4.92188 13.4121 7.93164c11.7305 10.9502 26.3428 39.2227 30.9805 49.1914
c2.37012 5.09961 7.38281 7.94824 12.8027 6.57812c0.150391 -0.0117188 0.40332 -0.0302734 0.740234 -0.0302734c4.74609 0 13.4287 2.77246 18.2871 21.3525zM432.338 106.834c31.4443 -12.5791 51.7617 -42.5889 51.7617 -76.457v-82.665
c0 -6.46973 -5.24414 -11.7119 -11.7119 -11.7119h-432.775c-6.46777 0 -11.7119 5.24219 -11.7119 11.7119v82.665c0 33.8682 20.3174 63.8809 51.7617 76.457l102.398 40.9561c2.94434 1.17871 6.24219 1.11035 9.14258 -0.1875
c2.89551 -1.29785 5.1416 -3.71973 6.21875 -6.7041l25.7402 -71.165l5.09766 14.6533l-8.10938 19.8232c-1.47656 3.6123 -1.05957 7.72363 1.11719 10.9648c2.17383 3.23926 5.82031 5.18359 9.72266 5.18359h50.0215c3.90234 0 7.54688 -1.94434 9.72363 -5.18359
c2.17578 -3.24121 2.59277 -7.35254 1.11719 -10.9648l-8.10938 -19.8232l5.09668 -14.6533l25.7402 71.165c1.07812 2.98438 3.32422 5.4043 6.21875 6.7041c2.90039 1.2959 6.19629 1.36328 9.14258 0.1875zM428.78 -3.41699v36.5176
c0 6.46973 -5.24414 11.7119 -11.7119 11.7119h-78.6338c-6.4668 0 -11.7109 -5.24219 -11.7109 -11.7119v-36.5176c0 -6.46973 5.24414 -11.7119 11.7109 -11.7119h78.6338c6.46777 0 11.7119 5.24219 11.7119 11.7119z" />
            <glyph glyph-name="uniF105" unicode="&#xf105;" 
                   d="M495.979 132.433l0.488281 -172.964c0.0380859 -12.9258 -10.4111 -23.4346 -23.3369 -23.4697h-0.0673828c-12.8955 0 -23.3672 10.4336 -23.4023 23.3369l-0.488281 173.029l0.00292969 0.0664062h-10.0957l-0.0136719 -173.031
c-0.000976562 -12.9248 -10.4785 -23.4014 -23.4043 -23.4014h-0.00195312c-12.9248 0.000976562 -23.4023 10.4795 -23.4014 23.4062l0.0107422 147.835c2.78223 1.36035 5.44043 3.09082 7.90137 5.19824c5.32617 4.5625 47.9414 41.0625 54.0449 46.291
c5.00195 4.2832 9.75293 7.4209 10.6074 15.0889l7.91699 70.9893l-24.5596 -64.6689c-1.1582 -3.05176 -3.06543 -5.76465 -5.54492 -7.88867l-54.0439 -46.291c-8.17871 -7.00391 -20.4902 -6.05762 -27.501 2.125c-7.00684 8.18066 -6.05566 20.4932 2.125 27.501
l50.2637 43.0537l22.793 60.0186l-30.5938 -43.2607l-12.9971 -11.1328v68.2666c0 15.0811 12.2256 27.3057 27.3066 27.3057h48.6934c15.082 0 27.3066 -12.2246 27.3066 -27.3057v-140.098h-0.00878906zM403.7 357.046c0 26.9479 13.474 40.4219 40.4219 40.4219
s40.4219 -13.474 40.4219 -40.4219s-13.474 -40.4219 -40.4219 -40.4219s-40.4219 13.474 -40.4219 40.4219zM27.4561 357.046c3.8147e-06 26.9479 13.474 40.4219 40.4219 40.4219s40.4219 -13.474 40.4219 -40.4219s-13.474 -40.4219 -40.4219 -40.4219
c-26.9479 0 -40.4219 13.474 -40.4219 40.4219zM148.787 155.585c8.18164 -7.00781 9.13184 -19.3203 2.125 -27.501c-7.00391 -8.1748 -19.3115 -9.13574 -27.501 -2.125l-54.0439 46.291c-2.47949 2.12402 -4.38672 4.83691 -5.5459 7.88867l-24.5586 64.668
l7.91699 -70.9883c0.885742 -7.7959 5.82129 -10.9883 10.6074 -15.0889c6.10449 -5.22852 48.7188 -41.7285 54.0449 -46.291c2.45996 -2.1084 5.11816 -3.83789 7.90039 -5.19824l0.0107422 -147.835c0.000976562 -12.9268 -10.4756 -23.4053 -23.4014 -23.4062
c-12.9268 -0.000976562 -23.4053 10.4766 -23.4062 23.4014l-0.0126953 173.031h-10.0957c0 -0.0214844 0.00390625 -0.0439453 0.00390625 -0.0664062l-0.489258 -173.029c-0.0361328 -12.9033 -10.5088 -23.3369 -23.4033 -23.3369h-0.0673828
c-12.9258 0.0351562 -23.374 10.543 -23.3369 23.4697l0.489258 172.963h-0.0107422v140.098c0 15.0801 12.2256 27.3057 27.3066 27.3057h48.6943c15.0811 0 27.3066 -12.2256 27.3066 -27.3057v-68.2666l-12.9971 11.1318l-30.5938 43.2627l22.793 -60.0186z
M277.74 401.203c0 -25.8447 -28.627 -46.7959 -63.9414 -46.7959c-12.4541 0 -24.0693 2.61523 -33.8984 7.12305l-23.4434 -12.4561c-0.936523 -0.498047 -2.08691 -0.337891 -2.85254 0.396484s-0.972656 1.87793 -0.513672 2.83398l9.85449 20.542
c-8.2041 7.86914 -13.0869 17.6934 -13.0869 28.3564c0 25.8457 28.627 46.7969 63.9414 46.7969c35.3135 0 63.9404 -20.9512 63.9404 -46.7969zM354.196 312.913c8.20508 -7.87012 13.0869 -17.6943 13.0869 -28.3564c0 -25.8447 -28.627 -46.7969 -63.9404 -46.7969
s-63.9404 20.9521 -63.9404 46.7969s28.627 46.7969 63.9404 46.7969c12.4551 0 24.0684 -2.61523 33.8975 -7.12402l23.4443 12.4561c0.936523 0.498047 2.08691 0.337891 2.85254 -0.396484c0.764648 -0.734375 0.972656 -1.87695 0.513672 -2.83301z" />
            <glyph glyph-name="uniF100" unicode="&#xf100;" 
                   d="M411.556 -26.9238c-2.40723 0 -4.78809 0.839844 -6.69922 2.45996l-103.774 87.9736h-229.909c-39.2451 0.000976562 -71.1729 32.1064 -71.1729 71.5703v204.274c0 39.4639 31.9277 71.5693 71.1729 71.5693h369.654c39.2451 0 71.1729 -32.1064 71.1729 -71.5693
v-204.274c0 -39.4639 -31.9277 -71.5693 -71.1729 -71.5693h-18.8828v-79.9854c0 -4.06641 -2.34375 -7.76172 -6.00977 -9.47461c-1.39941 -0.654297 -2.89355 -0.974609 -4.37891 -0.974609zM71.1729 390.026c-27.7852 0 -50.3906 -22.7314 -50.3906 -50.6719v-204.274
c0 -27.9395 22.6055 -50.6709 50.3906 -50.6709h233.704c2.45117 0 4.82324 -0.87207 6.69922 -2.45996l89.5859 -75.9482v67.959c0 5.77148 4.65332 10.4492 10.3916 10.4492h29.2734c27.7852 0 50.3906 22.7314 50.3906 50.6709v204.274
c0 27.9404 -22.6055 50.6719 -50.3906 50.6719h-369.654zM423.359 293.91h-334.719c-5.73828 0 -10.3906 4.67871 -10.3906 10.4492s4.65234 10.4482 10.3906 10.4482h334.718c5.73828 0 10.3906 -4.67773 10.3906 -10.4482s-4.65137 -10.4492 -10.3896 -10.4492z
M423.359 227.001h-334.719c-5.73828 0 -10.3906 4.67871 -10.3906 10.4492s4.65234 10.4482 10.3906 10.4482h334.718c5.73828 0 10.3906 -4.67773 10.3906 -10.4482s-4.65137 -10.4492 -10.3896 -10.4492zM423.359 160.091h-334.719
c-5.73828 0 -10.3906 4.67871 -10.3906 10.4492s4.65234 10.4492 10.3906 10.4492h334.718c5.73828 0 10.3906 -4.67773 10.3906 -10.4492c0 -5.77051 -4.65137 -10.4492 -10.3896 -10.4492z" />
            <glyph glyph-name="uniF103" unicode="&#xf103;" 
                   d="M490.081 202.048c32.2529 -37.0312 27.4697 -88.1113 -4.93262 -123.506c0.00976562 -0.0791016 0.0244141 -0.164062 0.0400391 -0.253906c-36.6094 -31.0078 -88.2119 -34.1494 -123.97 -0.472656c-27.2246 25.6416 -33.3525 60.5635 -21.8232 92.4277
l-4.25195 7.83594l7.67676 0.458008c0.726562 1.55762 1.45312 3.12109 2.26953 4.6543l-4.82324 7.66602l10.1152 1.1748c0.333984 0.507812 0.707031 1.01074 1.05078 1.51855l-2.88281 9.12012l9.64258 -0.239258c0.681641 0.806641 1.2998 1.64258 2.01074 2.43945
l-18.1494 20.8574l20.335 17.6973s4.59473 1.10547 10.8623 3.32031l-11.5088 13.2373c-3.51953 -1.92676 -7.5127 -3.01172 -11.6387 -3.01172c-4.28125 0 -8.52246 1.14941 -12.2412 3.32031l-22.2725 13.0176c-2.91211 1.69727 -5.35645 3.95215 -7.29785 6.58594
h-15.7061c-3.39453 -10.9814 -13.5146 -19.0312 -25.5967 -19.0312c-9.69238 0 -18.1299 5.20215 -22.8691 12.9131l-11.002 -3.56934c2.23047 -5.47559 4.12207 -9.125 4.12207 -9.125v-26.9609h-38.5059l-0.09375 0.268555h-14.7803
c0 38.3516 -31.2129 69.5684 -69.5732 69.5684c-37.9238 0 -68.8125 -30.5205 -69.499 -68.2842l0.696289 -0.636719s-0.681641 -0.742188 -1.98633 -2.13086c-0.641602 -0.691406 -1.44824 -1.55273 -2.38379 -2.55859
c-0.462891 -0.493164 -0.956055 -1.03027 -1.47852 -1.60254c-0.363281 -0.488281 -0.742188 -1.00586 -1.14062 -1.54883c-0.831055 -1.08496 -1.75684 -2.2793 -2.75781 -3.58887c-0.96582 -1.52832 -2.00586 -3.18652 -3.12109 -4.95312
c-1.08496 -1.78223 -1.95605 -3.84863 -3.06641 -5.92871c-1.03516 -2.11621 -1.75684 -4.49512 -2.75293 -6.89453c-1.51855 -4.94824 -2.92188 -10.4492 -3.36035 -16.4385c-0.761719 -5.96289 -0.323242 -12.3555 0.62793 -18.8867
c1.03027 -6.54102 3.29004 -13.0723 6.20215 -19.4443c3.08691 -6.31152 7.2627 -12.1807 12.0176 -17.6221c2.16504 -2.07617 5.71484 -5.92871 8.09863 -7.57129c2.47949 -2.22559 5.59082 -4.17188 8.60254 -6.16797c6.2373 -3.57422 12.8135 -6.53613 19.5791 -8.24414
c6.74512 -1.62793 13.5303 -2.69336 20.002 -2.46387c6.48633 -0.0693359 12.5791 0.990234 18.1494 2.23535c5.51074 1.50781 10.4492 3.31543 14.7949 5.14258c2.15527 0.950195 4.15137 1.91113 6.08789 2.68262c1.8623 0.901367 3.49023 1.87695 5.10254 2.60352
c3.23145 1.43848 5.47656 3.06152 7.26855 3.8877c1.77734 0.881836 2.72266 1.35938 2.72266 1.35938s-0.517578 -0.90625 -1.60254 -2.55859c-0.737305 -1.01074 -1.66309 -2.46973 -2.90234 -4.05273l-0.433594 -12.8535l-8.43262 4.28711
c-0.885742 -0.662109 -1.81641 -1.34961 -2.77734 -2.06152l0.337891 -10.668l-10.6826 4.69434l-2.42383 -10.6982l-9.92676 6.14844l1.0752 0.666992c-4.84863 -1.37891 -10.0859 -2.51855 -15.666 -2.98145c-7.45703 -0.931641 -15.4424 -0.46875 -23.6055 0.755859
c-8.18457 1.29492 -16.3887 4.0625 -24.3682 7.75098c-3.87793 2.05078 -7.81055 4.03711 -11.6641 6.86523c-1.95117 1.32422 -3.96191 2.69336 -5.37109 3.95703l-5.04297 4.19727c-6.43652 6.30664 -12.2354 13.376 -16.7461 21.1514
c-4.33594 7.84082 -7.81543 16.0938 -9.78711 24.4971c-1.88672 8.37793 -2.98633 16.7617 -2.59766 24.7207c0.114258 7.97559 1.59766 15.4326 3.33008 22.1924c1.10449 3.31055 1.99609 6.56641 3.23047 9.50879c1.30469 2.91211 2.39453 5.75977 3.74316 8.27344
c1.39453 2.48926 2.70898 4.81836 3.91797 6.97363c1.42383 2.17578 2.8877 4.15234 4.17188 5.9248c0.18457 0.248047 0.338867 0.467773 0.517578 0.706055c4.97363 48.1982 45.8135 85.9219 95.3057 85.9219c22.3711 0 42.9209 -7.76562 59.2441 -20.6592
l-0.0302734 0.0898438s37.4795 1.31445 42.7314 4.81836c5.25195 3.50488 9.61816 3.50977 9.61816 -13.998c0 -4.95801 0.930664 -10.2646 2.24512 -15.3271l12.1162 3.92773c0.6875 14.2275 12.376 25.6172 26.7725 25.6172c12.082 0 22.2021 -8.0498 25.5967 -19.0361
h11.1016c0.208984 3.79297 1.21484 7.5166 3.18555 10.8916c4.33594 7.42285 12.376 12.0371 20.9834 12.0371c4.28613 0 8.52246 -1.13965 12.2402 -3.32031l22.2822 -13.0127c5.60547 -3.27539 9.59277 -8.53223 11.2402 -14.8096
c1.37891 -5.28711 0.866211 -10.7227 -1.25879 -15.666l16.0693 -18.4639c4.01172 2.12598 7.89453 4.59473 11.126 7.40723c13.2061 11.4941 16.0742 8.18945 16.8799 1.93164c0.632812 -4.92285 15.3174 -23.9199 21.5898 -31.8447
c19.2158 -2.67285 37.4756 -12.0068 52.0557 -28.7588zM29.8633 235.277c2.40918 0 4.36621 1.96094 4.36621 4.375c0 2.41016 -1.96191 4.37109 -4.36621 4.37109c-2.41895 0 -4.38086 -1.95605 -4.38086 -4.37109c0 -2.41406 1.96191 -4.375 4.38086 -4.375z
M204.878 290.842c0 -2.89648 2.34961 -5.24609 5.24707 -5.24609c2.89648 0 5.24121 2.34961 5.24121 5.24609c0 2.89746 -2.34473 5.24707 -5.24121 5.24707c-2.89746 0 -5.24707 -2.34961 -5.24707 -5.24707zM217.527 257.479c2.8916 0 5.24121 2.34961 5.24121 5.24609
c0 2.89746 -2.34961 5.24707 -5.24121 5.24707c-2.90723 0 -5.25195 -2.34961 -5.25195 -5.24707c0 -2.89648 2.34473 -5.24609 5.25195 -5.24609zM266.999 276.625c3.08105 0 5.87402 1.25391 7.90039 3.28027h-7.90039v15.751h7.90039
c-2.02148 2.02539 -4.81934 3.28027 -7.90039 3.28027c-6.14746 0 -11.1562 -5.00293 -11.1562 -11.1562c0 -6.15234 5.00879 -11.1553 11.1562 -11.1553zM345.812 273.901c1.45898 -0.850586 3.11621 -1.17969 4.73926 -1.06445l-1.16504 1.33398l9.19531 8.00977
c-0.0449219 0.422852 -0.0947266 0.850586 -0.204102 1.26855c-0.573242 2.20117 -1.98145 4.04785 -3.95312 5.20215l-22.2764 13.0127c-1.29492 0.761719 -2.78809 1.16992 -4.29102 1.16992c-3.02246 0 -5.84961 -1.62207 -7.37793 -4.23633
c-0.542969 -0.920898 -0.890625 -1.91602 -1.04492 -2.94141h10.5732v-12.5205zM399.197 246.482c-1.06543 -0.930664 -1.65332 -2.2002 -1.76758 -3.49902l2.18066 -2.51953l-1.14062 -1.00488c0.0898438 -0.115234 0.109375 -0.264648 0.214844 -0.378906
c1.89648 -2.19531 5.21191 -2.41895 7.3916 -0.522461c2.19531 1.90625 2.4248 5.2168 0.517578 7.40234c-1.90137 2.19531 -5.2168 2.42383 -7.39648 0.522461zM373.122 233.595c-2.1709 -1.90234 -2.40527 -5.22266 -0.507812 -7.40234
c1.90625 -2.18555 5.2168 -2.41504 7.40234 -0.513672c2.18457 1.90234 2.41406 5.21777 0.517578 7.39746c-1.91211 2.19043 -5.22168 2.41992 -7.41211 0.518555zM379.234 96.9414c25.2393 -23.7852 60.793 -21.5703 86.8828 -0.368164
c23.5508 25.2979 27.4785 61.4785 4.17188 88.2412c-24.293 27.9072 -61.2949 26.1348 -89.8398 3.37988c-25.3486 -27.8223 -28.7627 -65.3076 -1.21484 -91.2529zM475.795 81.5889c1.68164 1.45312 1.85156 3.99219 0.392578 5.6748
c-1.45312 1.66309 -3.99219 1.84668 -5.6748 0.388672c-1.67285 -1.45898 -1.84668 -4.00293 -0.393555 -5.6748c1.45898 -1.66797 3.99805 -1.84766 5.67578 -0.388672z" />
            <glyph glyph-name="uniF101" unicode="&#xf101;" 
                   d="M141.907 375.434c0 -20.7148 -16.8652 -37.5156 -37.6123 -37.5156c-20.7666 0 -37.6191 16.8008 -37.6191 37.5156c0 20.7217 16.8145 37.5479 37.6191 37.5479c20.7471 0 37.6123 -16.8008 37.6123 -37.5479zM108.241 118.32h-8.33008l-7.56348 -138.561
c0 -4.83398 -3.93262 -8.83203 -8.91504 -8.83203c-4.80273 0 -8.76758 3.99805 -8.76758 8.83203l-7.61523 138.561h-24.4678l25.3623 155.329l-50.9951 -101.566c-1.95703 -4.4668 -7.10059 -6.62988 -11.6191 -4.73145
c-4.43555 1.93164 -6.55273 7.03613 -4.60254 11.5879c0 0 37.4131 101.063 46.6309 119.892c9.16602 18.8867 18.3457 30.3193 53.3516 30.3193h7.16406c35.083 0 44.166 -11.4648 53.416 -30.3193c9.24316 -18.8281 46.6113 -119.892 46.6113 -119.892
c1.88574 -4.55176 -0.231445 -9.65625 -4.69922 -11.5879c-4.51855 -1.86621 -9.66895 0.264648 -11.5352 4.73145l-50.9951 101.566l25.3174 -155.329h-24.5l-7.5127 -138.561c0 -4.83398 -3.95215 -8.83203 -8.83105 -8.83203
c-4.85449 0 -8.76758 3.99805 -8.76758 8.83203zM407.686 413.078c20.6953 0 37.4961 -16.7939 37.4961 -37.5479c0 -20.7471 -16.8262 -37.5479 -37.4961 -37.5479c-20.8047 0 -37.6641 16.8008 -37.6641 37.5479c0 20.7539 16.8975 37.5479 37.6641 37.5479z
M446.611 192.07l-0.0966797 0.000976562l7.26758 -205.347c0.53418 -8.09082 -5.5293 -15.1592 -13.666 -15.7256c-0.367188 -0.0712891 -0.695312 -0.0712891 -1.0625 -0.0712891c-7.63477 0 -14.168 5.90332 -14.6318 13.7373l-16.833 169.099l-16.6338 -169.099
c-0.598633 -7.80176 -7.09961 -13.7373 -14.7988 -13.7373c-0.302734 0 -0.663086 0 -1.0625 0.0712891c-8.07227 0.566406 -14.168 7.62793 -13.666 15.7256l7.22949 205.346l-2.46582 81.6758l-45.9678 -101.599c-1.80273 -4.4668 -7.00391 -6.63672 -11.5029 -4.66699
c-4.4873 1.9375 -6.56641 7.03613 -4.64746 11.5869c0 0 32.2754 101.063 41.4424 119.88c9.26953 18.835 23.5342 30.2676 58.5332 30.2676h7.19629c35.0381 0 49.2764 -11.4326 58.54 -30.2676c9.22461 -18.8164 41.5264 -119.88 41.5264 -119.88
c1.86621 -4.55078 -0.200195 -9.64941 -4.76367 -11.5869c-4.46094 -1.93066 -9.62988 0.200195 -11.5674 4.66699l-45.8652 101.599zM255.975 184.803c12.7324 0 23.0645 -10.2793 23.0645 -22.9805c0 -12.7324 -10.332 -23.0322 -23.0645 -23.0322
c-12.7656 0 -23.1162 10.293 -23.1162 23.0322c0 12.6943 10.3506 22.9805 23.1162 22.9805zM255.975 49.1201c0 0 10.3828 -72.0254 10.3828 -72.0898c1.43555 -3.57227 4.73145 -6.10254 8.76758 -6.10254c4.13281 0 7.61523 2.76855 8.86426 6.50195
c0.0703125 0.231445 0.31543 4.5 0.0703125 5.20117l-4.26758 88.5303l1.36426 30.4355c1.2041 10.3311 1.43555 7.23535 13.1836 14.2705c12.0508 7.19727 32.418 38.9004 33.415 40.4326c0.96582 1.5957 2.83301 4.33203 3.19922 6.12793
c0.567383 3.19922 -1.49902 6.19922 -4.63477 6.86816c-2.40039 0.399414 -4.42871 -0.862305 -5.99902 -2.53613c-1.57031 -1.73145 -25.0732 -32.9971 -42.6846 -35.9971c-3.94629 0.567383 -8.21387 2.66504 -19.4473 2.66504h-4.43457
c-11.1689 0 -15.4307 -2.12988 -19.4219 -2.66504c-17.6504 3 -41.165 34.2656 -42.8135 35.9971c-1.5 1.67383 -3.4502 2.93555 -5.90234 2.53613c-3.13477 -0.668945 -5.24609 -3.66895 -4.59668 -6.86816c0.334961 -1.7959 2.18262 -4.53223 3.19922 -6.12793
c1.01758 -1.53223 21.4619 -33.2354 33.416 -40.4326c11.7861 -7.03516 12.0498 -3.93262 13.1826 -14.2705l1.32031 -30.4355l-4.22949 -88.5303c-0.238281 -0.727539 0 -4.99512 0.180664 -5.20117c1.21582 -3.7334 4.63477 -6.50195 8.79883 -6.50195
c3.96582 0 7.36426 2.53613 8.69727 6.10254c-0.0322266 0.0644531 10.3896 72.0898 10.3896 72.0898z" />
            <glyph glyph-name="uniF102" unicode="&#xf102;" 
                   d="M229.638 401.975c0 27.235 13.6175 40.8525 40.8525 40.8525c27.235 0 40.8525 -13.6175 40.8525 -40.8525c0 -27.2344 -13.6175 -40.8516 -40.8525 -40.8516c-27.235 0 -40.8525 13.6172 -40.8525 40.8516zM328.335 100.665l14.7266 0.000976562
c6.53638 0 12.3448 2.01693 17.4254 6.0508s8.38928 9.15235 9.92621 15.3555c2.6022 -1.58765 3.90332 -3.89787 3.90332 -6.93066v-21.8926l-42.0088 4.62793c-1.29257 0.138046 -2.61679 0.194687 -3.97266 0.169922v2.61816zM209.604 184.727
c-5.45923 2.93208 -11.2887 4.20227 -17.4883 3.81055l-21.9258 -1.36621l0.575195 114.516c0.0639648 12.7962 4.65535 23.7308 13.7741 32.8037c9.11879 9.07291 20.0762 13.6094 32.8723 13.6094h21.0918c0.931015 -2.38626 4.80971 -13.0973 11.6361 -32.133
c6.82635 -19.0357 10.6492 -29.6037 11.4684 -31.7039l-5.03711 27.1904c-0.383972 1.935 -0.100769 3.76669 0.849609 5.49512l7.94043 14.4424l-7.0332 12.4658c-0.52594 0.955078 -0.511292 1.90073 0.0439453 2.83691c0.563904 0.9375 1.38553 1.40625 2.46484 1.40625
h19.3047c1.08829 0 1.90991 -0.46875 2.46484 -1.40625c0.554199 -0.93808 0.568848 -1.8837 0.0439453 -2.83691l-7.0332 -12.4658l7.91113 -14.3877c0.978424 -1.76675 1.25415 -3.63394 0.827148 -5.60156l-5.76074 -27.1387
c0.941925 2.45535 4.9455 13.1569 12.0107 32.1047c7.06735 18.9489 11.0231 29.5263 11.8672 31.7322h20.7607c12.7964 0 23.7539 -4.53638 32.8727 -13.6091c9.12152 -9.07281 13.7131 -20.0071 13.7748 -32.803l0.420898 -83.7598
c-25.855 15.7589 -39.0367 23.784 -39.5449 24.0752l-0.297852 59.4854c-0.052887 2.72366 -1.44122 4.07196 -4.16504 4.04492c-2.7233 -0.0270081 -4.08496 -1.40201 -4.08496 -4.125c0.0022583 -21.9358 0.0107117 -40.5959 0.0253906 -55.9805
c-15.5059 3.79103 -27.4147 -1.13214 -35.7266 -14.7695c-4.7052 -7.71959 -5.99185 -15.9721 -3.85999 -24.7576c2.13187 -8.78662 7.05786 -15.5318 14.778 -20.2356l25.0381 -15.2598c0.0163879 -1.98012 0.0393372 -4.35173 0.0687866 -7.11484
c0.0294495 -2.76312 0.0494995 -4.85213 0.0601196 -6.267h-95.7295c-0.298203 8.31993 -3.3174 15.4762 -9.05762 21.4688l-0.00292969 122.98c0 2.53122 -1.26562 3.79977 -3.79688 3.80566c-2.52948 0.00708008 -3.80128 -1.25528 -3.81543 -3.78711zM306.758 36.7021
c0 -9.90034 3.99121 -17.8303 11.9736 -23.79l3.90527 -8.68848v-22.7012c-5.43179 5.11328 -11.8634 7.66992 -19.2949 7.66992h-19.1621v111.473h22.5781v-11.7412c-10.2172 -10.1927 -12.3676 -21.8684 -6.45117 -35.0273
c1.10361 -2.30887 2.08884 -4.41256 2.95563 -6.31108c0.876068 -1.89851 2.04126 -4.57802 3.49554 -8.03853v-2.84473zM217.809 -10.8076v111.473h10.0137v-111.473h-10.0137zM344.479 156.988c-0.479279 0.0240936 -4.91092 0.0361328 -13.2949 0.0361328
l-0.0410156 8.0918zM42.7451 288.105c0 26.0762 13.0381 39.1143 39.1143 39.1143s39.1143 -13.0381 39.1143 -39.1143s-13.0381 -39.1143 -39.1143 -39.1143s-39.1143 13.0381 -39.1143 39.1143zM392.312 285.16c0 25.2201 12.61 37.8301 37.8301 37.8301
c25.2207 0 37.8311 -12.61 37.8311 -37.8301c0 -25.2207 -12.6104 -37.8311 -37.8311 -37.8311c-25.2201 0 -37.8301 12.6104 -37.8301 37.8311zM499.557 208.357c3.43625 0 6.36929 -1.21498 8.79913 -3.64493c2.42981 -2.42995 3.6452 -5.36308 3.64618 -8.79941v-136.388
v-98.5088c0 -3.43604 -1.21472 -6.36877 -3.64417 -8.79822s-5.36218 -3.64417 -8.79822 -3.64417c-3.43646 0 -6.36948 1.21471 -8.79901 3.64413c-2.42957 2.42942 -3.64435 5.36217 -3.64435 8.79826v37.0596h-80.6621v-8.32422
c-1.04315 2.04074 -8.56888 18.7816 -22.5771 50.2227l22.5771 6.06055v-23.0732h80.6621v24.1191c-66.0378 0 -106.951 -0.603191 -122.738 -1.80957l34.3438 -76.3945c2.22415 -4.94725 2.37344 -9.95649 0.447876 -15.0277s-5.36197 -8.71889 -10.3092 -10.943
c-4.93979 -2.22473 -9.94669 -2.375 -15.0208 -0.450806s-8.72403 5.36157 -10.95 10.3121l-45.8115 101.904c-2.79047 6.20617 -2.44803 12.2351 1.02734 18.0869c3.47412 5.84975 8.60434 9.03432 15.3906 9.55371l82.7314 6.32129l-40.6953 4.48242l3.56055 53.665
c1.86041 0.827011 19.9229 15.5432 54.1875 44.1484l-56.043 -26.1738c-2.19586 -1.02539 -4.50446 -1.53809 -6.92578 -1.53809c-3.0647 0 -5.90488 0.797531 -8.52051 2.39258l-55.8467 34.0361c-3.85992 2.35257 -6.32285 5.72508 -7.38879 10.1176
s-0.422668 8.51865 1.92981 12.3785c2.35257 3.85992 5.72513 6.32286 10.1177 7.38879s8.51901 0.422668 12.3794 -1.92981l48.3516 -29.4688l48.0908 22.46l-35.4141 -6.37891c1.46545 5.59586 4.56345 10.1167 9.29401 13.5627
c4.73056 3.44676 10.0392 4.9747 15.9257 4.58383l43.4414 -2.88184c6.72638 -0.446793 12.3075 -3.20409 16.7434 -8.27188c4.43942 -5.06862 6.43771 -10.964 5.99487 -17.6861l-8.66211 -131.555h20.3662v123.948c0 3.4361 1.21475 6.36902 3.64423 8.79875
s5.36218 3.64461 8.79816 3.64461zM303.342 -27.7148c3.11227 0 5.76907 -1.10021 7.97043 -3.30064c2.20135 -2.20043 3.30203 -4.85705 3.30203 -7.96987c0 -3.11286 -1.10071 -5.76984 -3.30212 -7.97094c-2.20258 -2.20102 -4.85934 -3.30152 -7.97034 -3.30152v0
c-62.0696 0 -93.5246 0.0950508 -94.3652 0.285156c-2.27159 -1.76975 -4.79144 -2.97906 -7.55957 -3.62793c-5.27771 -1.23986 -10.2232 -0.42696 -14.8366 2.43871c-4.61409 2.86567 -7.539 6.93102 -8.77473 12.1961l-8.61816 36.7266
c20.2616 22.3276 30.9002 34.3123 31.916 35.9541l10.4482 -44.5225l3.9668 -16.9072h29.2109v145.289h-73.9395v0c-3.22038 0 -5.94434 1.17448 -8.17188 3.52344v0c-2.06641 2.17805 -3.09961 4.76073 -3.09961 7.74805c0 3.5531 1.37598 6.45869 4.12793 8.7168
l-33.7451 -2.10352c-5.8353 -0.367691 -10.5228 1.7814 -14.0625 6.44727l-37.3721 49.2861l24.3281 -59.1768c3.93172 -9.51914 11.0261 -13.9596 21.2832 -13.3213c2.93428 0.183624 6.54951 0.40921 10.8457 0.676758l0.581055 -8.76367h13.8281h18.1602
c10.3769 0 16.7516 -5.05176 19.124 -15.1553l4.37305 -18.6396c-3.12814 1.94327 -6.51389 3.29288 -10.1572 4.04883l-43.9609 9.12695l-38.7061 8.03613l76.7217 -31.5986c6.29201 -2.59034 10.1859 -7.20525 11.6816 -13.8447
c1.49622 -6.63895 -0.0425262 -12.4785 -4.61621 -17.5186l-75.0811 -82.7412c-3.64169 -4.01342 -8.16998 -6.15315 -13.5848 -6.41919c-5.41486 -0.26614 -10.1353 1.4247 -14.1613 5.07251c-4.01747 3.64541 -6.15752 8.17719 -6.42017 13.5953
c-0.262642 5.41815 1.42885 10.1357 5.07446 14.1527l56.2852 62.0273l-17.042 7.01855h-92.1377v-24.8096h71.9521l-22.582 -24.8867h-49.3701v-37.2529c0 -3.4361 -1.21474 -6.36901 -3.64421 -8.79875c-2.42948 -2.42974 -5.3622 -3.64461 -8.79817 -3.64461
c-3.43641 0 -6.36941 1.21486 -8.79899 3.64457c-2.42958 2.42971 -3.64437 5.36264 -3.64437 8.79879v235.784c0 3.43652 1.21476 6.36955 3.64429 8.79907c2.42952 2.42952 5.36255 3.64429 8.79907 3.64429c3.43609 0 6.36884 -1.21477 8.79826 -3.64432
s3.64413 -5.36256 3.64413 -8.79904v-123.947h31.7119c-9.12589 3.75808 -13.2743 10.4238 -12.4453 19.9971l-7.5498 113.801c-0.446285 6.72505 1.55057 12.623 5.99056 17.6939c4.43999 5.07091 10.0226 7.8295 16.7477 8.27579l43.4297 2.88086
c6.72455 0.446289 12.6222 -1.55052 17.6931 -5.99042c5.07082 -4.43991 7.82938 -10.0222 8.27569 -16.7469l1.43457 -21.6143l-25.6221 20.0215l32.0703 -42.2949l56.5146 3.52148c4.50911 0.288483 8.45863 -1.06429 11.8485 -4.0583
c3.38992 -2.99402 5.22557 -6.7477 5.50693 -11.261c0.548904 -8.79004 -3.41235 -14.3786 -11.8838 -16.7656h144.452v0c3.11188 0 5.76843 -1.10028 7.96967 -3.30084c2.2012 -2.20157 3.30182 -4.85844 3.30182 -7.97064c0 -3.11283 -1.10065 -5.76962 -3.30191 -7.97037
s-4.85779 -3.30112 -7.96957 -3.30112v0h-75.7881v-145.288h36.0693v0z" />
            <glyph glyph-name="uniF106" unicode="&#xf106;" 
                   d="M138.799 95.1699v0l0.0117188 -123.622h-44.7471c-9.86035 0 -19.1562 4.56934 -25.1689 12.3857c-6.0127 7.79297 -8.06934 17.9541 -5.54395 27.4785l53.6221 174.996c3.09082 11.6885 12.543 20.6113 24.3877 23.0166l45.168 9.1875l61.0781 -110.358h-95.7236z
M448.674 11.4121c2.50098 -9.52441 0.480469 -19.6377 -5.52051 -27.4541c-6.0127 -7.81641 -15.3203 -12.3867 -25.1689 -12.3867h-37.5322v123.611l-13.083 13.083h-102.939l60.8252 109.758l45 -8.51465c12.0254 -2.28418 21.6582 -11.2676 24.7969 -23.1006z
M164.979 -28.4521v110.515h189.294v-110.515h-3.61914v-0.0361328l-189.307 -0.0126953v0.0488281h3.63184zM112.703 -64v23.666h286.605v-23.666h-286.605zM153.976 295.828c-5.44824 11.0518 -3.69238 23.1016 3.76367 29.042
c0 0.361328 -0.0117188 0.72168 -0.0117188 1.09473c-0.192383 61.583 7.14258 121.746 97.3467 122.035c89.542 0.300781 97.2266 -62.5088 97.4072 -121.398v-1.09375c7.51562 -5.85645 9.36719 -17.8945 3.99219 -29.0059
c-0.493164 -1.03418 -1.11816 -2.63379 -1.80371 -4.3291c-2.70605 -6.6377 -4.89453 -11.6045 -7.97363 -14.5625c-13.9971 -47.5732 -51.0596 -80.7041 -90.7568 -80.8359c-39.8643 -0.120117 -77.3838 32.7217 -91.9229 80.1621
c-3.13867 2.93457 -5.39941 7.9248 -8.17773 14.6113c-0.697266 1.65918 -1.3584 3.24707 -1.86328 4.28027zM166.566 314.793c-2.71777 -1.35938 -3.55957 -7.26367 -0.757812 -13.1074c0.697266 -1.39551 1.44238 -3.1748 2.21289 -5.03906
c1.1416 -2.76562 3.49902 -8.40625 4.89355 -9.90918c1.52734 -0.853516 2.64648 -2.26074 3.13867 -3.95605c12.3984 -42.9316 45.2041 -72.8389 79.7656 -72.7305c34.3818 0.120117 66.7422 30.2441 78.6357 73.2715c0.457031 1.69531 1.59863 3.12695 3.10254 3.99219
c1.38281 1.50293 3.65527 7.10742 4.76172 9.86133c0.793945 1.89941 1.50293 3.69141 2.18848 5.11035c2.85059 5.86914 1.95996 11.7734 -0.745117 13.1201l-0.25293 0.0839844c-1.70703 0.637695 -3.04199 1.94824 -3.76367 3.54785l-18.1943 -5.11133
c-0.289062 -0.0722656 -0.614258 -0.120117 -0.890625 -0.120117c-1.31055 -0.0117188 -2.54883 0.782227 -3.06641 2.05664l-6.26465 15.1162c-6.60254 -1.93652 -15.1289 -2.93457 -25.3984 -2.95801c-33.1543 -0.121094 -75.46 9.43945 -86.6318 12.1211
l-9.87305 -22.7998c-0.601562 -1.38379 -2.05664 -2.18945 -3.55957 -1.97266l-15.6211 2.41699c-0.757812 -1.29883 -1.93652 -2.34473 -3.41602 -2.88574z" />
        </font>
    </defs>
</svg>
